subtree	annotation_type	qualifier
FBcv:0000347	phenotype	genotype_to_phenotype_relation,environmental_qualifier,sex_qualifier,clone_qualifier,dominance_qualifier,intensity_qualifier,
FBbt:10000000	phenotype	genotype_to_phenotype_relation,environmental_qualifier,sex_qualifier,clone_qualifier,spatial_qualifier,structural_qualifier
GO:0005575	phenotype	genotype_to_phenotype_relation,environmental_qualifier,sex_qualifier,clone_qualifier,spatial_qualifier,structural_qualifier
FBcv:0000347	genetic interaction	genotype_to_phenotype_relation,sex_qualifier,clone_qualifier,
FBbt:10000000	genetic interaction	genotype_to_phenotype_relation,sex_qualifier,clone_qualifier,
GO:0005575	genetic interaction	genotype_to_phenotype_relation,sex_qualifier,clone_qualifier,